^C:\USERS\1\DROPBOX\MFCSCHOOL\LABS\MFCAPPLICATION1\MFCLAB2\STDAFX.CPP
C:\USERS\1\DROPBOX\MFCSCHOOL\LABS\MFCAPPLICATION1\MFCLAB2\DEBUG\MFCLAB2.PCH
C:\USERS\1\DROPBOX\MFCSCHOOL\LABS\MFCAPPLICATION1\MFCLAB2\DEBUG\STDAFX.OBJ
C:\USERS\1\DROPBOX\MFCSCHOOL\LABS\MFCAPPLICATION1\MFCLAB2\DEBUG\VC110.PDB
^C:\USERS\1\DROPBOX\MFCSCHOOL\LABS\MFCAPPLICATION1\MFCLAB2\MFCLAB2.CPP|C:\USERS\1\DROPBOX\MFCSCHOOL\LABS\MFCAPPLICATION1\MFCLAB2\MFCLAB2DLG.CPP
C:\USERS\1\DROPBOX\MFCSCHOOL\LABS\MFCAPPLICATION1\MFCLAB2\DEBUG\MFCLAB2.OBJ
C:\USERS\1\DROPBOX\MFCSCHOOL\LABS\MFCAPPLICATION1\MFCLAB2\DEBUG\MFCLAB2DLG.OBJ
^C:\USERS\1\DROPBOX\MFCSCHOOL\LABS\MFCAPPLICATION1\MFCLAB2\MFCLAB2.CPP
C:\USERS\1\DROPBOX\MFCSCHOOL\LABS\MFCAPPLICATION1\MFCLAB2\DEBUG\VC110.PDB
^C:\USERS\1\DROPBOX\MFCSCHOOL\LABS\MFCAPPLICATION1\MFCLAB2\MFCLAB2DLG.CPP
C:\USERS\1\DROPBOX\MFCSCHOOL\LABS\MFCAPPLICATION1\MFCLAB2\DEBUG\VC110.PDB
C:\USERS\1\DROPBOX\MFCSCHOOL\LABS\MFCAPPLICATION1\MFCLAB2\DEBUG\MFCLAB2DLG.OBJ
