^C:\USERS\1\DROPBOX\MFCSCHOOL\LABS\MFCAPPLICATION1\MFCLAB2\DEBUG\MFCLAB2.OBJ|C:\USERS\1\DROPBOX\MFCSCHOOL\LABS\MFCAPPLICATION1\MFCLAB2\DEBUG\MFCLAB2.RES|C:\USERS\1\DROPBOX\MFCSCHOOL\LABS\MFCAPPLICATION1\MFCLAB2\DEBUG\MFCLAB2DLG.OBJ|C:\USERS\1\DROPBOX\MFCSCHOOL\LABS\MFCAPPLICATION1\MFCLAB2\DEBUG\STDAFX.OBJ
C:\USERS\1\DROPBOX\MFCSCHOOL\LABS\MFCAPPLICATION1\DEBUG\MFCLAB2.ILK
C:\USERS\1\DROPBOX\MFCSCHOOL\LABS\MFCAPPLICATION1\DEBUG\MFCLAB2.EXE
C:\USERS\1\DROPBOX\MFCSCHOOL\LABS\MFCAPPLICATION1\DEBUG\MFCLAB2.PDB
