^C:\USERS\1\DROPBOX\MFCSCHOOL\LABS\MFCAPPLICATION1\MFCAPPLICATION1\STDAFX.CPP
C:\USERS\1\DROPBOX\MFCSCHOOL\LABS\MFCAPPLICATION1\MFCAPPLICATION1\DEBUG\MFCAPPLICATION1.PCH
C:\USERS\1\DROPBOX\MFCSCHOOL\LABS\MFCAPPLICATION1\MFCAPPLICATION1\DEBUG\STDAFX.OBJ
C:\USERS\1\DROPBOX\MFCSCHOOL\LABS\MFCAPPLICATION1\MFCAPPLICATION1\DEBUG\VC110.PDB
^C:\USERS\1\DROPBOX\MFCSCHOOL\LABS\MFCAPPLICATION1\MFCAPPLICATION1\MFCAPPLICATION1.CPP|C:\USERS\1\DROPBOX\MFCSCHOOL\LABS\MFCAPPLICATION1\MFCAPPLICATION1\MFCLAB1DLG.CPP
C:\USERS\1\DROPBOX\MFCSCHOOL\LABS\MFCAPPLICATION1\MFCAPPLICATION1\DEBUG\MFCAPPLICATION1.OBJ
C:\USERS\1\DROPBOX\MFCSCHOOL\LABS\MFCAPPLICATION1\MFCAPPLICATION1\DEBUG\MFCLAB1DLG.OBJ
^C:\USERS\1\DROPBOX\MFCSCHOOL\LABS\MFCAPPLICATION1\MFCAPPLICATION1\MFCAPPLICATION1.CPP
C:\USERS\1\DROPBOX\MFCSCHOOL\LABS\MFCAPPLICATION1\MFCAPPLICATION1\DEBUG\VC110.PDB
^C:\USERS\1\DROPBOX\MFCSCHOOL\LABS\MFCAPPLICATION1\MFCAPPLICATION1\MFCLAB1DLG.CPP
C:\USERS\1\DROPBOX\MFCSCHOOL\LABS\MFCAPPLICATION1\MFCAPPLICATION1\DEBUG\VC110.PDB
C:\USERS\1\DROPBOX\MFCSCHOOL\LABS\MFCAPPLICATION1\MFCAPPLICATION1\DEBUG\MFCLAB1DLG.OBJ
